digraph {
    rankdir = LR
    fontname=helvetica
    node[label="" shape=rectangle style=filled penwidth=0 fontname=helvetica]

    subgraph cluster0 {
        label = "Backlog"
        b1, b2, b3, b4
    }
    subgraph cluster1 {
        label = "Ready"
        r1
    }
    subgraph cluster2 {
        label = "In progress"
        i1, i2
    }
    subgraph cluster3 {
        label = "Done"
        d1
    }
    
    {
        edge[style=invis]
        b1 -> r1 -> i1 -> d1
    }

    // [fillcolor="#FC8D62"]
    r1[fillcolor="#66C2A5"]
    i1, i2[fillcolor="#8DA0CB"]
    d1[fillcolor="#E78AC3"]

    r1[label="2"]
    i1[label="2"]
    i2[label="4"]
    d1[label="2"]

    b1[label="2"]
    b2[label="4"]
    b3[label="8"]
    b4[label="2"]
}